DECLARE
  c_nazwa_tabeli CONSTANT VARCHAR2(30) := 'PPT_JPA_GENKEYS';
  c_prefiks      CONSTANT VARCHAR2(4)  := 'PKEY';
  c_komentarz    CONSTANT VARCHAR2(100) := 'Tabela służąca w JPA/HIBERNATE do nadawania unikalnych identyfikatorów dla rekordów tabel (encji)';
  c_schemat      CONSTANT VARCHAR2(5)  := 'PPADM';
  --
  v_count        NUMBER;
BEGIN
  SELECT COUNT(*)
    INTO v_count
    FROM user_tables 
   WHERE table_name = c_nazwa_tabeli;
  --
  IF v_count = 0 THEN
    eap_ddl.stworz_tabele( 
      p_nazwa => c_nazwa_tabeli, 
      p_kolumna_nazwa => 'PKEY_TABLE',
      p_kolumna_typ => 'VARCHAR2(255)',
      p_komentarz => c_komentarz,
      p_aplikacja => 'PP',
      p_przestrzen => 'PP_D',
      p_schemat => c_schemat
    );
    --
    eap_ddl.dodaj_klucz_glowny (
      p_nazwa_tabeli => c_nazwa_tabeli, 
      p_schemat => c_schemat,
      p_nazwy_kolumn => 'PKEY_TABLE', 
      p_nazwa_klucza => 'PPC_' || c_prefiks ||'_PK',
      p_przestrzen => 'PP_X',
      p_using_index => 'T'
    );
    --
    eap_ddl.dodaj_kolumne (c_nazwa_tabeli, 'PKEY_VALUE', c_schemat, 'NUMBER');
	eap_ddl.dodaj_kolumne (c_nazwa_tabeli, 'PKEY_TS', c_schemat, 'DATE');
    --
    PPP_AUDYT.UTWORZ_WYZWALACZ_AUDYTOWY(c_schemat,c_nazwa_tabeli);
  END IF;
  --
  ppp_generuj_trigger_tbts(c_schemat, c_nazwa_tabeli);
END;
/
