DECLARE
  c_nazwa_tabeli CONSTANT VARCHAR2(30) := 'PPT_TABLES';
  c_prefiks      CONSTANT VARCHAR2(4)  := 'TB';
  c_komentarz    CONSTANT VARCHAR2(50) := 'Indeks tabel PP';
  c_schemat      CONSTANT VARCHAR2(5)  := 'PPADM';
  --
  v_count        NUMBER;
BEGIN
  SELECT COUNT(*)
    INTO v_count
    FROM user_tables 
   WHERE table_name = c_nazwa_tabeli;
  --
  IF v_count = 0 THEN
    eap_ddl.stworz_tabele( 
      p_nazwa => c_nazwa_tabeli, 
      p_kolumna_nazwa => c_prefiks ||'_ID',
      p_kolumna_typ => 'NUMBER(10)',
      p_komentarz => c_komentarz,
      p_aplikacja => 'PP',
      p_przestrzen => 'PP_D',
      p_schemat => c_schemat
    );
    --
    eap_ddl.dodaj_klucz_glowny (
      p_nazwa_tabeli => c_nazwa_tabeli, 
      p_schemat => c_schemat,
      p_nazwy_kolumn => c_prefiks || '_ID', 
      p_nazwa_klucza => 'PPC_' || c_prefiks ||'_PK',
      p_przestrzen => 'PP_X',
      p_using_index => 'T'
    );
    --
    eap_ddl.dodaj_kolumne (c_nazwa_tabeli, 'TB_ENTITY_NAME', c_schemat, 'VARCHAR2(30)', 
      'Nazwa encji (klasy logicznej - np. OcenaOkresowa)');
    eap_ddl.dodaj_kolumne (c_nazwa_tabeli, 'TB_TABLE_NAME', c_schemat, 'VARCHAR2(30)', 
      'Nazwa tabeli (oraz posrednio nazwa persystencji PPT_OCENA_OKRESOWA)');
    eap_ddl.dodaj_kolumne (c_nazwa_tabeli, 'TB_OWNER', c_schemat, 'VARCHAR2(30)', 
      'Czasem bedziemy dodawac wpisy dot. obcych tabel (np. CSS_KRAJE), aby korzystać z nich w diagramach ' || 
      'lub definiować cons. FK (ale niekoniecznie użyjemy dla nich JPA)', 'PPADM');
    eap_ddl.dodaj_kolumne (c_nazwa_tabeli, 'TB_COLUMN_PREFIX', c_schemat, 'VARCHAR2(10)', 
      'Prefiks kolumn - np. OC');
    eap_ddl.dodaj_kolumne (c_nazwa_tabeli, 'TB_DESC', c_schemat, 'VARCHAR2(4000)', 
      'Opis/komentarz tabeli - np. "Oceny okresowe pracowników"');
    eap_ddl.dodaj_kolumne (c_nazwa_tabeli, 'TB_STATUS', c_schemat, 'VARCHAR2(10)', 
      'N - nowa, Z - zatwierdzona, A - archiwalna');
    --
    PPP_AUDYT.UTWORZ_WYZWALACZ_AUDYTOWY(c_schemat,c_nazwa_tabeli);
  END IF;
  --
  ppp_generuj_trigger_tbts(c_schemat, c_nazwa_tabeli);
END;
/
