DECLARE
  c_nazwa_tabeli CONSTANT VARCHAR2(30) := 'PPT_DZIENNIK_INSTALACJI';
  c_prefiks      CONSTANT VARCHAR2(4)  := 'INSP';
  c_komentarz    CONSTANT VARCHAR2(50) := 'Dziennik instalacji PP';
  c_schemat      CONSTANT VARCHAR2(5)  := 'PPADM';
  --
  v_count        NUMBER;
BEGIN
  SELECT COUNT(*)
    INTO v_count
    FROM user_tables 
   WHERE table_name = c_nazwa_tabeli;
  --
  IF v_count = 0 THEN
    eap_ddl.stworz_tabele( 
      p_nazwa => c_nazwa_tabeli, 
      p_kolumna_nazwa => c_prefiks ||'_ID',
      p_kolumna_typ => 'NUMBER(10)',
      p_komentarz => c_komentarz,
      p_aplikacja => 'PP',
      p_przestrzen => 'PP_D',
      p_schemat => c_schemat
    );
    --
    eap_ddl.dodaj_klucz_glowny (
      p_nazwa_tabeli => c_nazwa_tabeli, 
      p_schemat => c_schemat,
      p_nazwy_kolumn => c_prefiks || '_ID', 
      p_nazwa_klucza => 'PPC_' || c_prefiks ||'_PK',
      p_przestrzen => 'PP_X',
      p_using_index => 'T'
    );
    --
    eap_ddl.dodaj_kolumne (c_nazwa_tabeli, 'INSP_TS', c_schemat, 'TIMESTAMP(6)', 
      'Timestamp');
    eap_ddl.dodaj_kolumne (c_nazwa_tabeli, 'INSP_SESSIONID', c_schemat, 'NUMBER', 
      'ID sesji');
    eap_ddl.dodaj_kolumne (c_nazwa_tabeli, 'INSP_WERSJA', c_schemat, 'VARCHAR2(30)', 
      'Wersja');
    eap_ddl.dodaj_kolumne (c_nazwa_tabeli, 'INSP_INSTALATOR', c_schemat, 'VARCHAR2(30)', 
      'Instalator');
    eap_ddl.dodaj_kolumne (c_nazwa_tabeli, 'INSP_TEXT', c_schemat, 'CLOB', 
      'Tekst');
    eap_ddl.dodaj_kolumne (c_nazwa_tabeli, 'INSP_F_ZAPISANE', c_schemat, 'VARCHAR2(1)', 
      'Czy zapisane');
    eap_ddl.dodaj_kolumne (c_nazwa_tabeli, 'INSP_PDI_ID', c_schemat, 'NUMBER(10)', 
      'Klucz obcy do tabeli EAT_DZIENNIK_INSTALAJI');
    --
    eap_ddl.dodaj_klucz_obcy(
      p_nazwa_tabeli_pierwszej => c_nazwa_tabeli,
      p_nazwy_kolumn_pierwszej => 'INSP_PDI_ID',
      p_nazwa_tabeli_drugiej => 'EAT_DZIENNIK_INSTALAJI',
      p_nazwy_kolumn_drugiej => 'PDI_ID',
      p_schemat => c_schemat,
      p_schemat_drugi => 'EAADM',
      p_nazwa_klucza => 'PPC_INSP_PDI_FK'
    );
	--
    PPP_AUDYT.UTWORZ_WYZWALACZ_AUDYTOWY(c_schemat,c_nazwa_tabeli);
	--
	execute immediate 'CREATE SEQUENCE PPS_' || c_prefiks || ' START WITH 1';
  END IF;
  --
  ppp_generuj_trigger_tbts(c_schemat, c_nazwa_tabeli);
END;
/
