DECLARE
  c_nazwa_tabeli CONSTANT VARCHAR2(30) := 'PPT_OBJECTS';
  c_prefiks      CONSTANT VARCHAR2(4)  := 'OBJP';
  c_komentarz    CONSTANT VARCHAR2(50) := 'Indeks obiektów bazodanowych PP';
  c_schemat      CONSTANT VARCHAR2(5)  := 'PPADM';
  --
  v_count        NUMBER;
BEGIN
  SELECT COUNT(*)
    INTO v_count
    FROM user_tables 
   WHERE table_name = c_nazwa_tabeli;
  --
  IF v_count = 0 THEN
    eap_ddl.stworz_tabele( 
      p_nazwa => c_nazwa_tabeli, 
      p_kolumna_nazwa => c_prefiks ||'_ID',
      p_kolumna_typ => 'NUMBER(10)',
      p_komentarz => c_komentarz,
      p_aplikacja => 'PP',
      p_przestrzen => 'PP_D',
      p_schemat => c_schemat
    );
    --
    eap_ddl.dodaj_klucz_glowny (
      p_nazwa_tabeli => c_nazwa_tabeli, 
      p_schemat => c_schemat,
      p_nazwy_kolumn => c_prefiks || '_ID', 
      p_nazwa_klucza => 'PPC_' || c_prefiks ||'_PK',
      p_przestrzen => 'PP_X',
      p_using_index => 'T'
    );
    --
    PPP_AUDYT.UTWORZ_WYZWALACZ_AUDYTOWY(c_schemat,c_nazwa_tabeli);
  END IF;
  --
  eap_ddl.dodaj_kolumne (c_nazwa_tabeli, 'OBJP_OWNER', c_schemat, 'VARCHAR2(30)', 'Właściciel', 'PPADM');
  eap_ddl.dodaj_kolumne (c_nazwa_tabeli, 'OBJP_NAME', c_schemat, 'VARCHAR2(30)', 'Nazwa obiektu');
  eap_ddl.dodaj_kolumne (c_nazwa_tabeli, 'OBJP_OBJECT_TYPE', c_schemat, 'VARCHAR2(30)', 'Typ obiektu: SL, LW, VIEW, PROCEDURE, FUNCTION, PACKAGE, PACKAGE BODY, TRIGGER');
  eap_ddl.dodaj_kolumne (c_nazwa_tabeli, 'OBJP_REVISION', c_schemat, 'NUMBER(10,0)');
  eap_ddl.dodaj_kolumne (c_nazwa_tabeli, 'OBJP_VERSION', c_schemat, 'VARCHAR2(30 BYTE)', 'Wersja - CRC32 skryptu DDL lub data zmian dla skr. DML (w formacie yyyy.MM.dd hh:mm.ss)');
  eap_ddl.dodaj_kolumne (c_nazwa_tabeli, 'OBJP_VERSION_WAR', c_schemat, 'VARCHAR2(30 BYTE)', 'Wersja - CRC32 skryptu z pliku WAR');
  --
  select count(*) INTO v_count
  from SYS.all_tab_cols
  where owner = c_schemat
    and table_name = c_nazwa_tabeli
    and column_name = 'OBJP_F_AUTO_AKT';
  IF v_count = 0 THEN -- brak kolumny OBJP_F_AUTO_AKT
    eap_ddl.dodaj_kolumne (c_nazwa_tabeli, 'OBJP_F_AUTO_AKT', c_schemat, 'VARCHAR2(1)', 'Czy automatycznie aktualizować po zmianie wersji (przy starcie PP)', p_default=>'T');
   EXECUTE IMMEDIATE
    'update ppadm.ppt_objects
        set OBJP_F_AUTO_AKT = ''N''
    where OBJP_OBJECT_TYPE = ''SL''
     or (OBJP_OBJECT_TYPE = ''FUNTION'' and OBJP_NAME in ( ''PPF_BLOKADA_LOGOWANIA_UZT'' ))
     or (OBJP_OBJECT_TYPE = ''VIEW'' and OBJP_NAME in ( ''EK_ZATRUDNIENIE'' ))';
  END IF;
  --
  select count(*) INTO v_count
  from SYS.all_tab_cols
  where owner = c_schemat
    and table_name = c_nazwa_tabeli
    and column_name = 'OBJP_VERSION'
    and DATA_TYPE <> 'VARCHAR2';
  IF v_count > 0 THEN --jest kolumna OBJP_VERSION ale ma zy typ danych...
    EXECUTE IMMEDIATE 'alter table '||c_schemat||'''.'||c_nazwa_tabeli||''' rename column OBJP_VERSION to  OBJP_VERSION_ZZZ';
    eap_ddl.dodaj_kolumne (c_nazwa_tabeli, 'OBJP_VERSION', c_schemat, 'VARCHAR2(30)', 'Wersja - CRC32 skryptu DDL lub data zmian dla skr. DML (w formacie yyyy.MM.dd hh:mm.ss)');
  END IF;
  --
  ppp_generuj_trigger_tbts(c_schemat, c_nazwa_tabeli);
END;
/