------------------------------------------------------------------------------------------
-- dmp PPT_ABS_URLOPY_WNIOSKOWANE from DB921 / PPADM / created 2020.06.03 17:02:52
------------------------------------------------------------------------------------------
BEGIN
  DELETE FROM ppt_tab_cols WHERE tc_tb_id = (SELECT tb_id FROM ppt_tables WHERE tb_table_name = 'PPT_ABS_URLOPY_WNIOSKOWANE');
  DELETE FROM ppt_tables WHERE tb_table_name = 'PPT_ABS_URLOPY_WNIOSKOWANE';
  ----------------------------------------------------------------------------------------
  ppadm.pp_add_tab('PPADM', 'PPT_ABS_URLOPY_WNIOSKOWANE', 'AbsUrlopyWnioskowane', 'UPRW', p_desc => '');
  ----------------------------------------------------------------------------------------
  ppadm.pp_add_col('PPADM.PPT_ABS_URLOPY_WNIOSKOWANE', 'Id', 'NUMBER', 'UPRW_ID', 'Long', p_desc => 'ID URLOPY WNIOSKOWANE');
  ppadm.pp_add_col('PPADM.PPT_ABS_URLOPY_WNIOSKOWANE', 'PrcId', 'NUMBER', 'UPRW_PRC_ID', 'Long', p_nullable => 'T', p_ix_name => 'PPI_UPRW_PRC', p_fk_column_name => 'EGADM1.EK_PRACOWNICY.PRC_ID', p_desc => 'Klucz obcy do tabeli EK_PRACOWNICY(PRC_ID)');
  ppadm.pp_add_col('PPADM.PPT_ABS_URLOPY_WNIOSKOWANE', 'DataOd', 'DATE', 'UPRW_DATA_OD', 'Date', p_nullable => 'T', p_desc => 'Data rozpoczecia wnioskowanego urlopu');
  ppadm.pp_add_col('PPADM.PPT_ABS_URLOPY_WNIOSKOWANE', 'DataDo', 'DATE', 'UPRW_DATA_DO', 'Date', p_nullable => 'T', p_desc => 'Data zakonczenia wnioskowanego urlopu');
  ppadm.pp_add_col('PPADM.PPT_ABS_URLOPY_WNIOSKOWANE', 'Typ', 'VARCHAR2(50)', 'UPRW_TYP', 'String', p_nullable => 'T', p_desc => 'Typ wnioskowanego urlopu');
  ppadm.pp_add_col('PPADM.PPT_ABS_URLOPY_WNIOSKOWANE', 'Opis', 'VARCHAR2(250)', 'UPRW_OPIS', 'String', p_nullable => 'T', p_desc => 'Opis wnioskowanego urlopu');
  ppadm.pp_add_col('PPADM.PPT_ABS_URLOPY_WNIOSKOWANE', 'RdaKod', 'VARCHAR2(10)', 'UPRW_RDA_KOD', 'String', p_nullable => 'T', p_ix_name => 'PPI_UPRW_RDA_FK_KOD', p_fk_column_name => 'EGADM1.EK_RODZAJE_ABSENCJI.RDA_KOD', p_desc => 'Klucz obcy do tabeli EK_RODZAJE_ABSENCJI(RDA_KOD)');
  ppadm.pp_add_col('PPADM.PPT_ABS_URLOPY_WNIOSKOWANE', 'ZastPrcId', 'NUMBER(10)', 'UPRW_ZAST_PRC_ID', 'Long', p_nullable => 'T', p_desc => 'Opcjonalny pracownik zastepujacy w trakcie nieobecnosci (klucz obcy do EK_PRACOWNICY)');
  ppadm.pp_add_col('PPADM.PPT_ABS_URLOPY_WNIOSKOWANE', 'Status', 'NUMBER(10)', 'UPRW_STATUS', 'Long', p_nullable => 'T', p_desc => 'Status wniosku o nieobecnosc: +1 = zatwierdzony; -1 = odrzucony');
  ppadm.pp_add_col('PPADM.PPT_ABS_URLOPY_WNIOSKOWANE', 'RdaId', 'NUMBER(10)', 'UPRW_RDA_ID', 'Long', p_nullable => 'T', p_desc => 'FK do EK_RODZAJE_ABSENCJI');
  ppadm.pp_add_col('PPADM.PPT_ABS_URLOPY_WNIOSKOWANE', 'ZatwPrcId', 'NUMBER(10)', 'UPRW_ZATW_PRC_ID', 'Long', p_nullable => 'T', p_fk_column_name => 'EGADM1.EK_PRACOWNICY.PRC_ID', p_desc => 'Pracownik wyznaczony do zatwierdzenia urlop');
  ppadm.pp_add_col('PPADM.PPT_ABS_URLOPY_WNIOSKOWANE', 'ZatwierdzilPrcId', 'NUMBER(10)', 'UPRW_ZATWIERDZIL_PRC_ID', 'Long', p_nullable => 'T', p_fk_column_name => 'EGADM1.EK_PRACOWNICY.PRC_ID', p_desc => 'Pracownik ktory zatwierdzil urlop');
  ppadm.pp_add_col('PPADM.PPT_ABS_URLOPY_WNIOSKOWANE', 'DataZatwierdzenia', 'DATE', 'UPRW_DATA_ZATWIERDZENIA', 'Date', p_nullable => 'T', p_desc => 'Data zatwierdzenia urlopu');
  ppadm.pp_add_col('PPADM.PPT_ABS_URLOPY_WNIOSKOWANE', 'DgKod', 'VARCHAR2(10)', 'UPRW_DG_KOD', 'String', p_nullable => 'T', p_desc => 'Kod grupy absencji');
END;
/
