------------------------------------------------------------------------------------------
-- dmp PPT_OPS_WS_DANE from DB921 / PPADM / created 2020.06.03 17:02:42
------------------------------------------------------------------------------------------
BEGIN
  DELETE FROM ppt_tab_cols WHERE tc_tb_id = (SELECT tb_id FROM ppt_tables WHERE tb_table_name = 'PPT_OPS_WS_DANE');
  DELETE FROM ppt_tables WHERE tb_table_name = 'PPT_OPS_WS_DANE';
  ----------------------------------------------------------------------------------------
  ppadm.pp_add_tab('PPADM', 'PPT_OPS_WS_DANE', 'OpsWsDane', 'WOSPW', p_desc => '');
  ----------------------------------------------------------------------------------------
  ppadm.pp_add_col('PPADM.PPT_OPS_WS_DANE', 'Id', 'NUMBER(10)', 'WOSPW_ID', 'Long', p_desc => 'ID ');
  ppadm.pp_add_col('PPADM.PPT_OPS_WS_DANE', 'WospId', 'NUMBER(10)', 'WOSPW_WOSP_ID', 'Long', p_ix_name => 'PPI_WOSPW_WOSP_FK', p_fk_column_name => 'PPADM.PPT_OPS_OPIS_STANOWISKA.WOSP_ID', p_desc => 'Id wniosku dla ktorego sa edytowane dane (klucz obcy do wn_opis_stanowiska)  ');
  ppadm.pp_add_col('PPADM.PPT_OPS_WS_DANE', 'FSfAtr01', 'VARCHAR2(1)', 'WOSPW_F_SF_ATR_01', 'String', p_nullable => 'T', p_desc => 'Stanowiska formalnie podlegle - Atrybut 1');
  ppadm.pp_add_col('PPADM.PPT_OPS_WS_DANE', 'FSfAtr02', 'VARCHAR2(1)', 'WOSPW_F_SF_ATR_02', 'String', p_nullable => 'T', p_desc => 'Stanowiska formalnie podlegle - Atrybut 2');
  ppadm.pp_add_col('PPADM.PPT_OPS_WS_DANE', 'FSfAtr03', 'VARCHAR2(1)', 'WOSPW_F_SF_ATR_03', 'String', p_nullable => 'T', p_desc => 'Stanowiska formalnie podlegle - Atrybut 3');
  ppadm.pp_add_col('PPADM.PPT_OPS_WS_DANE', 'FSfAtr04', 'VARCHAR2(1)', 'WOSPW_F_SF_ATR_04', 'String', p_nullable => 'T', p_desc => 'Stanowiska formalnie podlegle - Atrybut 4');
  ppadm.pp_add_col('PPADM.PPT_OPS_WS_DANE', 'FSfAtr05', 'VARCHAR2(1)', 'WOSPW_F_SF_ATR_05', 'String', p_nullable => 'T', p_desc => 'Stanowiska formalnie podlegle - Atrybut 5');
  ppadm.pp_add_col('PPADM.PPT_OPS_WS_DANE', 'FSfAtr06', 'VARCHAR2(1)', 'WOSPW_F_SF_ATR_06', 'String', p_nullable => 'T', p_desc => 'Stanowiska formalnie podlegle - Atrybut 6');
  ppadm.pp_add_col('PPADM.PPT_OPS_WS_DANE', 'FSfAtr07', 'VARCHAR2(1)', 'WOSPW_F_SF_ATR_07', 'String', p_nullable => 'T', p_desc => 'Stanowiska formalnie podlegle - Atrybut 7');
  ppadm.pp_add_col('PPADM.PPT_OPS_WS_DANE', 'FSfAtr08', 'VARCHAR2(1)', 'WOSPW_F_SF_ATR_08', 'String', p_nullable => 'T', p_desc => 'Stanowiska formalnie podlegle - Atrybut 8');
  ppadm.pp_add_col('PPADM.PPT_OPS_WS_DANE', 'WkidAtr01', 'VARCHAR2(2000)', 'WOSPW_WKID_ATR_01', 'String', p_nullable => 'T', p_desc => 'Wymagane kompetencje i doswiadczenie zawodowe - Atrybut 1');
  ppadm.pp_add_col('PPADM.PPT_OPS_WS_DANE', 'WkidAtr02', 'VARCHAR2(2000)', 'WOSPW_WKID_ATR_02', 'String', p_nullable => 'T', p_desc => 'Wymagane kompetencje i doswiadczenie zawodowe - Atrybut 2');
  ppadm.pp_add_col('PPADM.PPT_OPS_WS_DANE', 'WkidAtr03', 'VARCHAR2(2000)', 'WOSPW_WKID_ATR_03', 'String', p_nullable => 'T', p_desc => 'Wymagane kompetencje i doswiadczenie zawodowe - Atrybut 3');
  ppadm.pp_add_col('PPADM.PPT_OPS_WS_DANE', 'WkidAtr04', 'VARCHAR2(2000)', 'WOSPW_WKID_ATR_04', 'String', p_nullable => 'T', p_desc => 'Wymagane kompetencje i doswiadczenie zawodowe - Atrybut 4');
  ppadm.pp_add_col('PPADM.PPT_OPS_WS_DANE', 'WkidAtr05', 'VARCHAR2(2000)', 'WOSPW_WKID_ATR_05', 'String', p_nullable => 'T', p_desc => 'Wymagane kompetencje i doswiadczenie zawodowe - Atrybut 5');
  ppadm.pp_add_col('PPADM.PPT_OPS_WS_DANE', 'WkidAtr06', 'VARCHAR2(2000)', 'WOSPW_WKID_ATR_06', 'String', p_nullable => 'T', p_desc => 'Wymagane kompetencje i doswiadczenie zawodowe - Atrybut 6');
  ppadm.pp_add_col('PPADM.PPT_OPS_WS_DANE', 'WkidAtr07', 'VARCHAR2(2000)', 'WOSPW_WKID_ATR_07', 'String', p_nullable => 'T', p_desc => 'Wymagane kompetencje i doswiadczenie zawodowe - Atrybut 7');
  ppadm.pp_add_col('PPADM.PPT_OPS_WS_DANE', 'WkidAtr08', 'VARCHAR2(2000)', 'WOSPW_WKID_ATR_08', 'String', p_nullable => 'T', p_desc => 'Wymagane kompetencje i doswiadczenie zawodowe - Atrybut 8');
  ppadm.pp_add_col('PPADM.PPT_OPS_WS_DANE', 'WkidAtr09', 'VARCHAR2(2000)', 'WOSPW_WKID_ATR_09', 'String', p_nullable => 'T', p_desc => 'Wymagane kompetencje i doswiadczenie zawodowe - Atrybut 9');
  ppadm.pp_add_col('PPADM.PPT_OPS_WS_DANE', 'WkidAtr10', 'VARCHAR2(2000)', 'WOSPW_WKID_ATR_10', 'String', p_nullable => 'T', p_desc => 'Wymagane kompetencje i doswiadczenie zawodowe - Atrybut 10');
  ppadm.pp_add_col('PPADM.PPT_OPS_WS_DANE', 'WkidAtr11', 'VARCHAR2(2000)', 'WOSPW_WKID_ATR_11', 'String', p_nullable => 'T', p_desc => 'Wymagane kompetencje i doswiadczenie zawodowe ? Atrybut 11');
  ppadm.pp_add_col('PPADM.PPT_OPS_WS_DANE', 'WkidAtr12', 'VARCHAR2(2000)', 'WOSPW_WKID_ATR_12', 'String', p_nullable => 'T', p_desc => 'Wymagane kompetencje i doswiadczenie zawodowe - Atrybut 12');
END;
/
