------------------------------------------------------------------------------------------
-- dmp PPT_TAB_TIMESTAMPS_TMP from DB921 / PPADM / created 2020.06.03 17:02:34
------------------------------------------------------------------------------------------
BEGIN
  DELETE FROM ppt_tab_cols WHERE tc_tb_id = (SELECT tb_id FROM ppt_tables WHERE tb_table_name = 'PPT_TAB_TIMESTAMPS_TMP');
  DELETE FROM ppt_tables WHERE tb_table_name = 'PPT_TAB_TIMESTAMPS_TMP';
  ----------------------------------------------------------------------------------------
  ppadm.pp_add_tab('PPADM', 'PPT_TAB_TIMESTAMPS_TMP', 'TabTimestampsTmp', 'TBTST', p_desc => '');
  ----------------------------------------------------------------------------------------
  ppadm.pp_add_col('PPADM.PPT_TAB_TIMESTAMPS_TMP', 'Sid', 'NUMBER(10)', 'TBTST_SID', 'Long', p_default => sys_context('USERENV','SID'), p_desc => '');
  ppadm.pp_add_col('PPADM.PPT_TAB_TIMESTAMPS_TMP', 'Ts', 'TIMESTAMP(6)(*,6)', 'TBTST_TS', 'Object', p_nullable => 'T', p_default => systimestamp
    , p_desc => '');
END;
/
