------------------------------------------------------------------------------------------
-- dmp PPT_ENCJE_U_UZYTKOWNIKOW from DB921 / PPADM / created 2020.06.03 17:02:46
------------------------------------------------------------------------------------------
BEGIN
  DELETE FROM ppt_tab_cols WHERE tc_tb_id = (SELECT tb_id FROM ppt_tables WHERE tb_table_name = 'PPT_ENCJE_U_UZYTKOWNIKOW');
  DELETE FROM ppt_tables WHERE tb_table_name = 'PPT_ENCJE_U_UZYTKOWNIKOW';
  ----------------------------------------------------------------------------------------
  ppadm.pp_add_tab('PPADM', 'PPT_ENCJE_U_UZYTKOWNIKOW', 'EncjeUUzytkownikow', 'EUU', p_desc => '');
  ----------------------------------------------------------------------------------------
  ppadm.pp_add_col('PPADM.PPT_ENCJE_U_UZYTKOWNIKOW', 'Id', 'NUMBER(10)', 'EUU_ID', 'Long', p_desc => '');
  ppadm.pp_add_col('PPADM.PPT_ENCJE_U_UZYTKOWNIKOW', 'KluczObcyId', 'NUMBER(10)', 'EUU_KLUCZ_OBCY_ID', 'Long', p_desc => '');
  ppadm.pp_add_col('PPADM.PPT_ENCJE_U_UZYTKOWNIKOW', 'ObgId', 'NUMBER(10)', 'EUU_OBG_ID', 'Long', p_desc => '');
  ppadm.pp_add_col('PPADM.PPT_ENCJE_U_UZYTKOWNIKOW', 'UztNazwa', 'VARCHAR2(30)', 'EUU_UZT_NAZWA', 'String', p_nullable => 'T', p_desc => '');
END;
/
