------------------------------------------------------------------------------------------
-- dmp PPT_WEB_UPRAWNIENIA from DB921 / PPADM / created 2020.06.03 17:02:40
------------------------------------------------------------------------------------------
BEGIN
  DELETE FROM ppt_tab_cols WHERE tc_tb_id = (SELECT tb_id FROM ppt_tables WHERE tb_table_name = 'PPT_WEB_UPRAWNIENIA');
  DELETE FROM ppt_tables WHERE tb_table_name = 'PPT_WEB_UPRAWNIENIA';
  ----------------------------------------------------------------------------------------
  ppadm.pp_add_tab('PPADM', 'PPT_WEB_UPRAWNIENIA', 'WebUprawnienia', 'WUPR', p_desc => '');
  ----------------------------------------------------------------------------------------
  ppadm.pp_add_col('PPADM.PPT_WEB_UPRAWNIENIA', 'NazwaXhtml', 'VARCHAR2(255)', 'WUPR_NAZWA_XHTML', 'String', p_uk_name => 'PPC_WUPR_UK_NZW', p_desc => 'Nazwa glownego pliku XHTML (viewRootId)');
  ppadm.pp_add_col('PPADM.PPT_WEB_UPRAWNIENIA', 'FunkcjaUzytkowa', 'VARCHAR2(60)', 'WUPR_FUNKCJA_UZYTKOWA', 'String', p_nullable => 'T', p_uk_name => 'PPC_WUPR_UK_NZW', p_desc => 'Nazwa funkcji uzytkowej np. PP_OCE_OCENIANY, PP_SLPR_KIER_KOM, PP_SLPR_PRZELOZONY');
  ppadm.pp_add_col('PPADM.PPT_WEB_UPRAWNIENIA', 'ZestawPolId', 'VARCHAR2(250)', 'WUPR_ZESTAW_POL_ID', 'String', p_nullable => 'T', p_uk_name => 'PPC_WUPR_UK_NZW', p_desc => 'Unikalny identyfikator zestawu pol (FIELD_SET_ID) w obrebie viewRootId ');
  ppadm.pp_add_col('PPADM.PPT_WEB_UPRAWNIENIA', 'StanObiegu', 'VARCHAR2(60)', 'WUPR_STAN_OBIEGU', 'String', p_nullable => 'T', p_uk_name => 'PPC_WUPR_UK_NZW', p_desc => 'Stan obiegu w ktorym znajduje sie formularz np. Wprowadzony, Zatwierdzony, Brak itp');
  ppadm.pp_add_col('PPADM.PPT_WEB_UPRAWNIENIA', 'Uprawnienie', 'VARCHAR2(10)', 'WUPR_UPRAWNIENIE', 'String', p_nullable => 'T', p_desc => 'Rodzaj uprawnienia np. + Przeglad, - Przeglad');
  ppadm.pp_add_col('PPADM.PPT_WEB_UPRAWNIENIA', 'Id', 'NUMBER', 'WUPR_ID', 'Long', p_desc => 'Unikalny identyfikator rekordu');
  ppadm.pp_add_col('PPADM.PPT_WEB_UPRAWNIENIA', 'CzyEdytowalne', 'VARCHAR2(1)', 'WUPR_CZY_EDYTOWALNE', 'String', p_nullable => 'T', p_desc => 'T - edytowalne, N - tylko do odczytu');
  ppadm.pp_add_col('PPADM.PPT_WEB_UPRAWNIENIA', 'CzyWyswietlac', 'VARCHAR2(1)', 'WUPR_CZY_WYSWIETLAC', 'String', p_nullable => 'T', p_desc => 'T - wyswietlac, N - ukryc');
  ppadm.pp_add_col('PPADM.PPT_WEB_UPRAWNIENIA', 'Opis', 'VARCHAR2(2000)', 'WUPR_OPIS', 'String', p_nullable => 'T', p_desc => '');
END;
/
