------------------------------------------------------------------------------------------
-- dmp PPT_ADM_SLOWNIKI from DB921 / PPADM / created 2020.06.05 12:26:20
------------------------------------------------------------------------------------------
BEGIN
  DELETE FROM ppt_tab_cols WHERE tc_tb_id = (SELECT tb_id FROM ppt_tables WHERE tb_table_name = 'PPT_ADM_SLOWNIKI');
  DELETE FROM ppt_tables WHERE tb_table_name = 'PPT_ADM_SLOWNIKI';
  ----------------------------------------------------------------------------------------
  ppadm.pp_add_tab('PPADM', 'PPT_ADM_SLOWNIKI', 'AdmSlowniki', 'SL', p_desc => 'Tabele css_slowniki, css_wartosci_slownikow umozliwiaja definiowanie wartosci slownikowych w systemie, tabela css_slowniki przechowuje nazwy dostepnych w systemie slownikow, a elementy ktore naleza do danego slownika znajduja sie w tabeli c');
  ----------------------------------------------------------------------------------------
  ppadm.pp_add_col('PPADM.PPT_ADM_SLOWNIKI', 'Nazwa', 'VARCHAR2(100)', 'SL_NAZWA', 'String', p_uk_name => 'PPT_ADM_SLOWNIKI_UK1', p_desc => 'Nazwa slownika');
  ppadm.pp_add_col('PPADM.PPT_ADM_SLOWNIKI', 'Opis', 'VARCHAR2(240)', 'SL_OPIS', 'String', p_nullable => 'T', p_desc => 'Informacje dodatkowe');
  ppadm.pp_add_col('PPADM.PPT_ADM_SLOWNIKI', 'MaxDlugosc', 'NUMBER(3)', 'SL_MAX_DLUGOSC', 'Long', p_desc => 'Maksymalna dlugosc wartosci slownika');
  ppadm.pp_add_col('PPADM.PPT_ADM_SLOWNIKI', 'MaxIlosc', 'NUMBER(6)', 'SL_MAX_ILOSC', 'Long', p_nullable => 'T', p_desc => 'Maksymalna ilosc pozycji wartosci dla slownika');
  ppadm.pp_add_col('PPADM.PPT_ADM_SLOWNIKI', 'PoziomDostepu', 'VARCHAR2(240)', 'SL_POZIOM_DOSTEPU', 'String', p_desc => 'Poziom dostepu do slownika');
  ppadm.pp_add_col('PPADM.PPT_ADM_SLOWNIKI', 'Wzorzec', 'VARCHAR2(100)', 'SL_WZORZEC', 'String', p_nullable => 'T', p_desc => 'Ujednolicona nazwa slownika');
  ppadm.pp_add_col('PPADM.PPT_ADM_SLOWNIKI', 'FInstallDodaj', 'VARCHAR2(1)', 'SL_F_INSTALL_DODAJ', 'String', p_desc => 'Okresla czy dopuszczalne wstawianie wartosci slownika przez skrypty instalacyjne');
  ppadm.pp_add_col('PPADM.PPT_ADM_SLOWNIKI', 'FInstallUsun', 'VARCHAR2(1)', 'SL_F_INSTALL_USUN', 'String', p_desc => 'Okresla czy dopuszczalne usuwanie wartosci slownika przez skrypty instalacyjne');
  ppadm.pp_add_col('PPADM.PPT_ADM_SLOWNIKI', 'FInstallModyfikuj', 'VARCHAR2(1)', 'SL_F_INSTALL_MODYFIKUJ', 'String', p_desc => 'Okresla czy dopuszczalne usuwanie wartosci slownika przez skrypty instalacyjne');
  ppadm.pp_add_col('PPADM.PPT_ADM_SLOWNIKI', 'NazwaZewn', 'VARCHAR2(20)', 'SL_NAZWA_ZEWN', 'String', p_nullable => 'T', p_desc => 'Okre?la nazwe slownika w rejestrze zewnetrznym');
  ppadm.pp_add_col('PPADM.PPT_ADM_SLOWNIKI', 'Id', 'NUMBER(10)', 'SL_ID', 'Long', p_desc => 'Klucz glowny tabeli');
  ppadm.pp_add_col('PPADM.PPT_ADM_SLOWNIKI', 'FAktualizuj', 'VARCHAR2(1)', 'SL_F_AKTUALIZUJ', 'String', p_nullable => 'T', p_desc => 'Czy aktualizuj');
END;
/
