------------------------------------------------------------------------------------------
-- dmp PPT_DEL_STAWKI_DELEGACJI from DB921 / PPADM / created 2020.06.03 17:02:47
------------------------------------------------------------------------------------------
BEGIN
  DELETE FROM ppt_tab_cols WHERE tc_tb_id = (SELECT tb_id FROM ppt_tables WHERE tb_table_name = 'PPT_DEL_STAWKI_DELEGACJI');
  DELETE FROM ppt_tables WHERE tb_table_name = 'PPT_DEL_STAWKI_DELEGACJI';
  ----------------------------------------------------------------------------------------
  ppadm.pp_add_tab('PPADM', 'PPT_DEL_STAWKI_DELEGACJI', 'DelStawkiDelegacji', 'STD', p_desc => '');
  ----------------------------------------------------------------------------------------
  ppadm.pp_add_col('PPADM.PPT_DEL_STAWKI_DELEGACJI', 'Id', 'NUMBER(10)', 'STD_ID', 'Long', p_desc => 'ID stawki delegacji');
  ppadm.pp_add_col('PPADM.PPT_DEL_STAWKI_DELEGACJI', 'KodStawki', 'VARCHAR2(30)', 'STD_KOD_STAWKI', 'String', p_uk_name => 'PPC_STD_UK_KOD', p_desc => 'Unikalny kod w ramach zatwierdzonych stawek');
  ppadm.pp_add_col('PPADM.PPT_DEL_STAWKI_DELEGACJI', 'NazwaStawki', 'VARCHAR2(100)', 'STD_NAZWA_STAWKI', 'String', p_uk_name => 'PPC_STD_UK_NAZWA', p_desc => 'Nazwa stawki');
  ppadm.pp_add_col('PPADM.PPT_DEL_STAWKI_DELEGACJI', 'StanDefinicji', 'VARCHAR2(1)', 'STD_STAN_DEFINICJI', 'String', p_desc => 'Stan definicji');
  ppadm.pp_add_col('PPADM.PPT_DEL_STAWKI_DELEGACJI', 'Opis', 'VARCHAR2(4000)', 'STD_OPIS', 'String', p_nullable => 'T', p_desc => 'Dowolny opis');
END;
/
