------------------------------------------------------------------------------------------
-- dmp PPT_OCE_KRYTERIA from DB921 / PPADM / created 2020.06.03 17:02:44
------------------------------------------------------------------------------------------
BEGIN
  DELETE FROM ppt_tab_cols WHERE tc_tb_id = (SELECT tb_id FROM ppt_tables WHERE tb_table_name = 'PPT_OCE_KRYTERIA');
  DELETE FROM ppt_tables WHERE tb_table_name = 'PPT_OCE_KRYTERIA';
  ----------------------------------------------------------------------------------------
  ppadm.pp_add_tab('PPADM', 'PPT_OCE_KRYTERIA', 'OceKryteria', 'KRYT', p_desc => '');
  ----------------------------------------------------------------------------------------
  ppadm.pp_add_col('PPADM.PPT_OCE_KRYTERIA', 'Id', 'NUMBER(22)', 'KRYT_ID', 'Long', p_desc => 'Klucz glowny tabeli');
  ppadm.pp_add_col('PPADM.PPT_OCE_KRYTERIA', 'OceId', 'NUMBER(22)', 'KRYT_OCE_ID', 'Long', p_nullable => 'T', p_ix_name => 'PPI_KRYT_OCE_FK', p_fk_column_name => 'PPADM.PPT_OCE_OCENY.OCE_ID', p_desc => 'Klucz obcy do tabeli PPT_OCE_OCENY');
  ppadm.pp_add_col('PPADM.PPT_OCE_KRYTERIA', 'Kryterium', 'VARCHAR2(10)', 'KRYT_KRYTERIUM', 'String', p_nullable => 'T', p_desc => 'Kod kryterium (slownik OCE_KRYTERIA)');
  ppadm.pp_add_col('PPADM.PPT_OCE_KRYTERIA', 'Ocena', 'VARCHAR2(10)', 'KRYT_OCENA', 'String', p_nullable => 'T', p_desc => 'Ocena kryterium');
  ppadm.pp_add_col('PPADM.PPT_OCE_KRYTERIA', 'Rodzaj', 'VARCHAR2(22)', 'KRYT_RODZAJ', 'String', p_nullable => 'T', p_desc => 'Rodzaj kryterium O - obowiazkowe, D - dodatkowe');
END;
/
