------------------------------------------------------------------------------------------
-- dmp PPT_ABS_ABSENCJE_DANE from DB921 / PPADM / created 2020.06.03 17:02:52
------------------------------------------------------------------------------------------
BEGIN
  DELETE FROM ppt_tab_cols WHERE tc_tb_id = (SELECT tb_id FROM ppt_tables WHERE tb_table_name = 'PPT_ABS_ABSENCJE_DANE');
  DELETE FROM ppt_tables WHERE tb_table_name = 'PPT_ABS_ABSENCJE_DANE';
  ----------------------------------------------------------------------------------------
  ppadm.pp_add_tab('PPADM', 'PPT_ABS_ABSENCJE_DANE', 'AbsAbsencjeDane', 'AB', p_desc => '');
  ----------------------------------------------------------------------------------------
  ppadm.pp_add_col('PPADM.PPT_ABS_ABSENCJE_DANE', 'KodUb', 'NUMBER(6)', 'AB_KOD_UB', 'Long', p_nullable => 'T', p_desc => 'Kod tytulu ubezpieczenia dla absencji');
  ppadm.pp_add_col('PPADM.PPT_ABS_ABSENCJE_DANE', 'FModyfikacja', 'VARCHAR2(1)', 'AB_F_MODYFIKACJA', 'String', p_desc => 'Czy absencja zostala zmodyfikowana po obliczeniu placy');
  ppadm.pp_add_col('PPADM.PPT_ABS_ABSENCJE_DANE', 'FWaloryzacja', 'VARCHAR2(1)', 'AB_F_WALORYZACJA', 'String', p_desc => 'Czy chorobowe podlega waloryzacji?');
  ppadm.pp_add_col('PPADM.PPT_ABS_ABSENCJE_DANE', 'Ogonek', 'NUMBER(5,4)', 'AB_OGONEK', 'Double', p_nullable => 'T', p_desc => 'Dopelnienie godzin');
  ppadm.pp_add_col('PPADM.PPT_ABS_ABSENCJE_DANE', 'GodzinyWykorzystane', 'NUMBER(8,3)', 'AB_GODZINY_WYKORZYSTANE', 'Double', p_nullable => 'T', p_desc => 'Liczba godzin absencji');
  ppadm.pp_add_col('PPADM.PPT_ABS_ABSENCJE_DANE', 'Id', 'NUMBER(10)', 'AB_ID', 'Long', p_desc => 'Identyfikator rekordu w tabeli PPT_ABS_ABSENCJE_DANE');
  ppadm.pp_add_col('PPADM.PPT_ABS_ABSENCJE_DANE', 'ZwolId', 'NUMBER(10)', 'AB_ZWOL_ID', 'Long', p_ix_name => 'PPI_AB_FK_ZWOL', p_desc => 'Powiazanie z rekordem w tabeli EK_ZWOLNIENIA');
  ppadm.pp_add_col('PPADM.PPT_ABS_ABSENCJE_DANE', 'DataDo', 'DATE', 'AB_DATA_DO', 'Date', p_desc => 'Data koncowa absencji');
  ppadm.pp_add_col('PPADM.PPT_ABS_ABSENCJE_DANE', 'DataOd', 'DATE', 'AB_DATA_OD', 'Date', p_desc => 'Data poczatkowa absencji');
  ppadm.pp_add_col('PPADM.PPT_ABS_ABSENCJE_DANE', 'FCzesc', 'VARCHAR2(1)', 'AB_F_CZESC', 'String', p_desc => 'Urlop na czesc dnia.');
  ppadm.pp_add_col('PPADM.PPT_ABS_ABSENCJE_DANE', 'FrmId', 'NUMBER(10)', 'AB_FRM_ID', 'Long', p_ix_name => 'PPI_AB_FRM_FK', p_fk_column_name => 'EAADM.EAT_FIRMY.FRM_ID', p_desc => 'Kolumna klucza obcego do tabeli EAT_FIRMY');
  ppadm.pp_add_col('PPADM.PPT_ABS_ABSENCJE_DANE', 'FAnulowana', 'VARCHAR2(1)', 'AB_F_ANULOWANA', 'String', p_desc => 'Czy anulowana?');
  ppadm.pp_add_col('PPADM.PPT_ABS_ABSENCJE_DANE', 'KodFunduszu', 'VARCHAR2(10)', 'AB_KOD_FUNDUSZU', 'String', p_nullable => 'T', p_desc => 'Kod funduszu z ktorego placona jest absencja: FP, ZUS');
  ppadm.pp_add_col('PPADM.PPT_ABS_ABSENCJE_DANE', 'ProcentFunduszu', 'NUMBER(5,2)', 'AB_PROCENT_FUNDUSZU', 'Double', p_nullable => 'T', p_desc => 'W jakiej wysokoci bedzie platny zasilek');
  ppadm.pp_add_col('PPADM.PPT_ABS_ABSENCJE_DANE', 'DataLiczenia', 'DATE', 'AB_DATA_LICZENIA', 'Date', p_nullable => 'T', p_desc => 'Miesiac w ktorym absencja ma byc przeliczona w systemie PL');
  ppadm.pp_add_col('PPADM.PPT_ABS_ABSENCJE_DANE', 'DniWykorzystane', 'NUMBER(8,3)', 'AB_DNI_WYKORZYSTANE', 'Double', p_nullable => 'T', p_desc => 'Liczba dni absencji');
  ppadm.pp_add_col('PPADM.PPT_ABS_ABSENCJE_DANE', 'KodDodatkowy', 'VARCHAR2(10)', 'AB_KOD_DODATKOWY', 'String', p_nullable => 'T', p_desc => 'Dodatkowy kod absencji (Kod choroby ZUS)');
  ppadm.pp_add_col('PPADM.PPT_ABS_ABSENCJE_DANE', 'KodZus', 'NUMBER(3)', 'AB_KOD_ZUS', 'Long', p_nullable => 'T', p_desc => 'Kod ZUS dla absencji - przerwa w oplacaniu skladek');
END;
/
