------------------------------------------------------------------------------------------
-- dmp PPT_DEL_TRASY from DB921 / PPADM / created 2020.06.03 17:02:47
------------------------------------------------------------------------------------------
BEGIN
  DELETE FROM ppt_tab_cols WHERE tc_tb_id = (SELECT tb_id FROM ppt_tables WHERE tb_table_name = 'PPT_DEL_TRASY');
  DELETE FROM ppt_tables WHERE tb_table_name = 'PPT_DEL_TRASY';
  ----------------------------------------------------------------------------------------
  ppadm.pp_add_tab('PPADM', 'PPT_DEL_TRASY', 'DelTrasy', 'TRS', p_desc => '');
  ----------------------------------------------------------------------------------------
  ppadm.pp_add_col('PPADM.PPT_DEL_TRASY', 'Id', 'NUMBER(10)', 'TRS_ID', 'Long', p_desc => 'ID trasy');
  ppadm.pp_add_col('PPADM.PPT_DEL_TRASY', 'KrIdOd', 'NUMBER(10)', 'TRS_KR_ID_OD', 'Long', p_ix_name => 'PPI_TRS_KR_FK_OD', p_fk_column_name => 'EGADM1.CSS_KRAJE.KR_ID', p_desc => 'Klucz obcy do tabeli CSS_KRAJE (KR_ID)');
  ppadm.pp_add_col('PPADM.PPT_DEL_TRASY', 'KrIdDo', 'NUMBER(10)', 'TRS_KR_ID_DO', 'Long', p_ix_name => 'PPI_TRS_KR_FK_DO', p_fk_column_name => 'EGADM1.CSS_KRAJE.KR_ID', p_desc => 'Klucz obcy do tabeli CSS_KRAJE (KR_ID)');
  ppadm.pp_add_col('PPADM.PPT_DEL_TRASY', 'MiejscowoscOd', 'VARCHAR2(50)', 'TRS_MIEJSCOWOSC_OD', 'String', p_desc => 'Nazwa miejscowosci odjazdu');
  ppadm.pp_add_col('PPADM.PPT_DEL_TRASY', 'MiejscowoscDo', 'VARCHAR2(50)', 'TRS_MIEJSCOWOSC_DO', 'String', p_desc => 'Nazwa miejscowosci przyjazdu ');
  ppadm.pp_add_col('PPADM.PPT_DEL_TRASY', 'DataOd', 'DATE', 'TRS_DATA_OD', 'Date', p_nullable => 'T', p_desc => 'Data i godzina (z dokladnoscia do minuty) przyjazdu');
  ppadm.pp_add_col('PPADM.PPT_DEL_TRASY', 'DataDo', 'DATE', 'TRS_DATA_DO', 'Date', p_nullable => 'T', p_desc => 'Data i godzina (z dokladnoscia do minuty) odjazdu');
  ppadm.pp_add_col('PPADM.PPT_DEL_TRASY', 'Opis', 'VARCHAR2(4000)', 'TRS_OPIS', 'String', p_nullable => 'T', p_desc => 'Opis trasy');
  ppadm.pp_add_col('PPADM.PPT_DEL_TRASY', 'KrIdDiety', 'NUMBER(10)', 'TRS_KR_ID_DIETY', 'Long', p_nullable => 'T', p_ix_name => 'PPI_TRS_KR_DIETY_FK', p_fk_column_name => 'EGADM1.CSS_KRAJE.KR_ID', p_desc => 'Kraj dla ktorego liczona jest dieta, klucz obcy do tabeli CSS_KRAJE (KR_ID)');
  ppadm.pp_add_col('PPADM.PPT_DEL_TRASY', 'SrodekLokomocji', 'VARCHAR2(2)', 'TRS_SRODEK_LOKOMOCJI', 'String', p_nullable => 'T', p_desc => 'Srodek lokomocji');
  ppadm.pp_add_col('PPADM.PPT_DEL_TRASY', 'KalId', 'NUMBER(10)', 'TRS_KAL_ID', 'Long', p_ix_name => 'PPI_TRS_KAL_FK', p_fk_column_name => 'PPADM.PPT_DEL_KALKULACJE.KAL_ID', p_desc => 'Klucz obcy do tabeli PPT_DEL_KALKULACJE(KAL_ID)');
  ppadm.pp_add_col('PPADM.PPT_DEL_TRASY', 'FakturaVatNaBilet', 'VARCHAR2(50)', 'TRS_FAKTURA_VAT_NA_BILET', 'String', p_nullable => 'T', p_desc => 'Numer obcy faktury vat na bilet');
  ppadm.pp_add_col('PPADM.PPT_DEL_TRASY', 'KosztBiletu', 'NUMBER(10)', 'TRS_KOSZT_BILETU', 'Long', p_nullable => 'T', p_desc => 'Koszt biletu');
  ppadm.pp_add_col('PPADM.PPT_DEL_TRASY', 'TerminPlatnosciZaBilet', 'DATE', 'TRS_TERMIN_PLATNOSCI_ZA_BILET', 'Date', p_nullable => 'T', p_desc => 'Termin platnosci za bilet');
  ppadm.pp_add_col('PPADM.PPT_DEL_TRASY', 'TerminWykupuBiletu', 'DATE', 'TRS_TERMIN_WYKUPU_BILETU', 'Date', p_nullable => 'T', p_desc => 'Termin wykupy bilety');
  ppadm.pp_add_col('PPADM.PPT_DEL_TRASY', 'CzynnosciSluzboweOd', 'DATE', 'TRS_CZYNNOSCI_SLUZBOWE_OD', 'Date', p_nullable => 'T', p_desc => 'Data i godzina rozpoczęcia czynności służbowych');
  ppadm.pp_add_col('PPADM.PPT_DEL_TRASY', 'CzynnosciSluzboweDo', 'DATE', 'TRS_CZYNNOSCI_SLUZBOWE_DO', 'Date', p_nullable => 'T', p_desc => 'Data i godzina zakończenia czynności służbowych');
  ppadm.pp_add_col('PPADM.PPT_DEL_TRASY', 'IloscKm', 'NUMBER(10)', 'TRS_ILOSC_KM', 'Long', p_nullable => 'T', p_desc => 'Ilość kilometrów przebytych na odcinku trasy');
END;
/
