------------------------------------------------------------------------------------------
-- dmp PPT_DEL_KALKULACJE from DB921 / PPADM / created 2020.06.03 17:02:48
------------------------------------------------------------------------------------------
BEGIN
  DELETE FROM ppt_tab_cols WHERE tc_tb_id = (SELECT tb_id FROM ppt_tables WHERE tb_table_name = 'PPT_DEL_KALKULACJE');
  DELETE FROM ppt_tables WHERE tb_table_name = 'PPT_DEL_KALKULACJE';
  ----------------------------------------------------------------------------------------
  ppadm.pp_add_tab('PPADM', 'PPT_DEL_KALKULACJE', 'DelKalkulacje', 'KAL', p_desc => '');
  ----------------------------------------------------------------------------------------
  ppadm.pp_add_col('PPADM.PPT_DEL_KALKULACJE', 'Id', 'NUMBER(10)', 'KAL_ID', 'Long', p_desc => 'ID kalkulacji');
  ppadm.pp_add_col('PPADM.PPT_DEL_KALKULACJE', 'WndId', 'NUMBER(10)', 'KAL_WND_ID', 'Long', p_ix_name => 'PPI_KAL_WND_FK', p_fk_column_name => 'PPADM.PPT_DEL_WNIOSKI_DELEGACJI.WND_ID', p_desc => 'ID wniosku delegacji (klucz obcy do PPT_WNIOSKI_DELEGACJI)');
  ppadm.pp_add_col('PPADM.PPT_DEL_KALKULACJE', 'Data', 'DATE', 'KAL_DATA', 'Date', p_desc => 'Data utworzenia kalkulacji');
  ppadm.pp_add_col('PPADM.PPT_DEL_KALKULACJE', 'Opis', 'VARCHAR2(4000)', 'KAL_OPIS', 'String', p_nullable => 'T', p_desc => 'Dowolny opis');
  ppadm.pp_add_col('PPADM.PPT_DEL_KALKULACJE', 'KwId', 'NUMBER(10)', 'KAL_KW_ID', 'Long', p_nullable => 'T', p_ix_name => 'PPI_KAL_KW_FK', p_fk_column_name => 'EGADM1.CSS_KURSY.KW_ID', p_desc => 'Klucz obcy na CSS_KURSY(KW_ID)');
  ppadm.pp_add_col('PPADM.PPT_DEL_KALKULACJE', 'DataKursu', 'DATE', 'KAL_DATA_KURSU', 'Date', p_nullable => 'T', p_desc => 'Data kursu');
  ppadm.pp_add_col('PPADM.PPT_DEL_KALKULACJE', 'KalId', 'NUMBER(10)', 'KAL_KAL_ID', 'Long', p_nullable => 'T', p_ix_name => 'PPI_KAL_KAL_FK', p_fk_column_name => 'PPADM.PPT_DEL_KALKULACJE.KAL_ID', p_desc => 'Klucz obcy na kalkulacje wstepna z ktorej kopiowano planowane koszty');
  ppadm.pp_add_col('PPADM.PPT_DEL_KALKULACJE', 'Rodzaj', 'VARCHAR2(15)', 'KAL_RODZAJ', 'String', p_nullable => 'T', p_desc => 'Opisuje rodzaj kalkulacji : wniosek, wstepna, rozliczajaca');
END;
/
