------------------------------------------------------------------------------------------
-- dmp PPT_OCENY_WARTOSCI from DB921 / PPADM / created 2020.06.03 17:02:53
------------------------------------------------------------------------------------------
BEGIN
  DELETE FROM ppt_tab_cols WHERE tc_tb_id = (SELECT tb_id FROM ppt_tables WHERE tb_table_name = 'PPT_OCENY_WARTOSCI');
  DELETE FROM ppt_tables WHERE tb_table_name = 'PPT_OCENY_WARTOSCI';
  ----------------------------------------------------------------------------------------
  ppadm.pp_add_tab('PPADM', 'PPT_OCENY_WARTOSCI', 'PptOcenyWartosci', 'OWART', p_desc => 'komentarz tabeli PPT_OCENY_WARTOSCI');
  ----------------------------------------------------------------------------------------
  ppadm.pp_add_col('PPADM.PPT_OCENY_WARTOSCI', 'owartWartoscE3', 'NUMBER(12,4)', 'OWART_WARTOSC_E3', 'BigDecimal', p_nullable => 'T', p_uk_name => 'PPC_OWART_UK_WARTOSC_E3', p_desc => '...koment...');
  ppadm.pp_add_col('PPADM.PPT_OCENY_WARTOSCI', 'owartId', 'NUMBER(10)', 'OWART_ID', 'long', p_desc => 'PK');
  ppadm.pp_add_col('PPADM.PPT_OCENY_WARTOSCI', 'pptOceny', 'NUMBER(10)', 'OWART_ONAG_ID', 'PptOceny', p_fk_column_name => 'PPADM.PPT_OCENY.ONAG_ID', p_desc => 'FK');
  ppadm.pp_add_col('PPADM.PPT_OCENY_WARTOSCI', 'owartKryterium', 'varchar2(240)', 'OWART_KRYTERIUM', 'String', p_desc => '...koment...');
  ppadm.pp_add_col('PPADM.PPT_OCENY_WARTOSCI', 'owartWaga', 'NUMBER(10,4)', 'OWART_WAGA', 'BigDecimal', p_nullable => 'T', p_desc => '...koment...');
  ppadm.pp_add_col('PPADM.PPT_OCENY_WARTOSCI', 'owartWartoscE1', 'NUMBER(12,4)', 'OWART_WARTOSC_E1', 'BigDecimal', p_nullable => 'T', p_desc => '...koment...');
  ppadm.pp_add_col('PPADM.PPT_OCENY_WARTOSCI', 'owartWartoscE2', 'NUMBER(12,4)', 'OWART_WARTOSC_E2', 'BigDecimal', p_nullable => 'T', p_desc => '...koment...');
  ppadm.pp_add_col('PPADM.PPT_OCENY_WARTOSCI', 'owartWartoscE4', 'NUMBER(12,4)', 'OWART_WARTOSC_E4', 'BigDecimal', p_nullable => 'T', p_desc => 'koment');
END;
/
