------------------------------------------------------------------------------------------
-- dmp PPT_DEL_ZAPRASZAJACY from DB921 / PPADM / created 2020.06.03 17:02:46
------------------------------------------------------------------------------------------
BEGIN
  DELETE FROM ppt_tab_cols WHERE tc_tb_id = (SELECT tb_id FROM ppt_tables WHERE tb_table_name = 'PPT_DEL_ZAPRASZAJACY');
  DELETE FROM ppt_tables WHERE tb_table_name = 'PPT_DEL_ZAPRASZAJACY';
  ----------------------------------------------------------------------------------------
  ppadm.pp_add_tab('PPADM', 'PPT_DEL_ZAPRASZAJACY', 'DelZapraszajacy', 'ZAPR', p_desc => '');
  ----------------------------------------------------------------------------------------
  ppadm.pp_add_col('PPADM.PPT_DEL_ZAPRASZAJACY', 'WndId', 'NUMBER(10)', 'ZAPR_WND_ID', 'Long', p_ix_name => 'PPI_ZAPR_WND_FK', p_fk_column_name => 'PPADM.PPT_DEL_WNIOSKI_DELEGACJI.WND_ID', p_desc => 'Klucz obcy do tabeli PPT_DEL_WNIOSKI_DELEGACJI (WND_ID)');
  ppadm.pp_add_col('PPADM.PPT_DEL_ZAPRASZAJACY', 'Id', 'VARCHAR2(50)', 'ZAPR_ID', 'String', p_desc => 'ZAPRASZAJACY ID');
  ppadm.pp_add_col('PPADM.PPT_DEL_ZAPRASZAJACY', 'Opis', 'VARCHAR2(256)', 'ZAPR_OPIS', 'String', p_nullable => 'T', p_desc => 'Opis');
  ppadm.pp_add_col('PPADM.PPT_DEL_ZAPRASZAJACY', 'FInne', 'VARCHAR2(1)', 'ZAPR_F_INNE', 'String', p_nullable => 'T', p_desc => 'Czy inny zapraszajacy');
END;
/
