------------------------------------------------------------------------------------------
-- dmp PPT_ABS_URLOPY_PLANOWANE_DNI from DB921 / PPADM / created 2020.06.03 17:02:52
------------------------------------------------------------------------------------------
BEGIN
  DELETE FROM ppt_tab_cols WHERE tc_tb_id = (SELECT tb_id FROM ppt_tables WHERE tb_table_name = 'PPT_ABS_URLOPY_PLANOWANE_DNI');
  DELETE FROM ppt_tables WHERE tb_table_name = 'PPT_ABS_URLOPY_PLANOWANE_DNI';
  ----------------------------------------------------------------------------------------
  ppadm.pp_add_tab('PPADM', 'PPT_ABS_URLOPY_PLANOWANE_DNI', 'AbsUrlopyPlanowaneDni', 'URPD', p_desc => '');
  ----------------------------------------------------------------------------------------
  ppadm.pp_add_col('PPADM.PPT_ABS_URLOPY_PLANOWANE_DNI', 'Id', 'NUMBER', 'URPD_ID', 'Long', p_desc => 'Identyfikator dnia urlopu');
  ppadm.pp_add_col('PPADM.PPT_ABS_URLOPY_PLANOWANE_DNI', 'UrplId', 'NUMBER', 'URPD_URPL_ID', 'Long', p_nullable => 'T', p_ix_name => 'PPI_URPD_URPL_FK', p_fk_column_name => 'PPADM.PPT_ABS_URLOPY_PLANOWANE.URPL_ID', p_desc => 'Identyfikator urlopu, z ktAlrym powiA?zany jest dzieL?');
  ppadm.pp_add_col('PPADM.PPT_ABS_URLOPY_PLANOWANE_DNI', 'PrcId', 'NUMBER', 'URPD_PRC_ID', 'Long', p_nullable => 'T', p_ix_name => 'PPI_URPD_PRC_FK', p_fk_column_name => 'EGADM1.EK_PRACOWNICY.PRC_ID', p_desc => 'Identyfikator pracownika');
  ppadm.pp_add_col('PPADM.PPT_ABS_URLOPY_PLANOWANE_DNI', 'KalId', 'NUMBER', 'URPD_KAL_ID', 'Long', p_nullable => 'T', p_desc => 'Identyfikator kalendarza');
  ppadm.pp_add_col('PPADM.PPT_ABS_URLOPY_PLANOWANE_DNI', 'OrgId', 'NUMBER', 'URPD_ORG_ID', 'Long', p_nullable => 'T', p_desc => 'Identyfikator jednostki organizacyjnej');
  ppadm.pp_add_col('PPADM.PPT_ABS_URLOPY_PLANOWANE_DNI', 'Rok', 'NUMBER', 'URPD_ROK', 'Long', p_nullable => 'T', p_desc => 'Rok');
  ppadm.pp_add_col('PPADM.PPT_ABS_URLOPY_PLANOWANE_DNI', 'Data', 'DATE', 'URPD_DATA', 'Date', p_nullable => 'T', p_desc => 'Data dnia');
  ppadm.pp_add_col('PPADM.PPT_ABS_URLOPY_PLANOWANE_DNI', 'Typ', 'VARCHAR2(50)', 'URPD_TYP', 'String', p_nullable => 'T', p_desc => 'Typ urlopu');
  ppadm.pp_add_col('PPADM.PPT_ABS_URLOPY_PLANOWANE_DNI', 'Opis', 'VARCHAR2(250)', 'URPD_OPIS', 'String', p_nullable => 'T', p_desc => 'Opis urlopu');
END;
/
