------------------------------------------------------------------------------------------
-- dmp PPT_REK_NABORY from DB921 / PPADM / created 2020.06.03 17:02:41
------------------------------------------------------------------------------------------
BEGIN
  DELETE FROM ppt_tab_cols WHERE tc_tb_id = (SELECT tb_id FROM ppt_tables WHERE tb_table_name = 'PPT_REK_NABORY');
  DELETE FROM ppt_tables WHERE tb_table_name = 'PPT_REK_NABORY';
  ----------------------------------------------------------------------------------------
  ppadm.pp_add_tab('PPADM', 'PPT_REK_NABORY', 'RekNabory', 'NAB', p_desc => '');
  ----------------------------------------------------------------------------------------
  ppadm.pp_add_col('PPADM.PPT_REK_NABORY', 'Id', 'NUMBER(10)', 'NAB_ID', 'Long', p_desc => 'klucz glowny tabeli');
  ppadm.pp_add_col('PPADM.PPT_REK_NABORY', 'StnId', 'NUMBER(10)', 'NAB_STN_ID', 'Long', p_ix_name => 'PPI_NAB_STN_FK', p_fk_column_name => 'EGADM1.ZPT_STANOWISKA.STN_ID', p_desc => 'Nazwa stanowiska, na ktore odbywa sie nabor / rekrutacja ? klucz obcy do tabeli ZPT_STANOWISKA');
  ppadm.pp_add_col('PPADM.PPT_REK_NABORY', 'NrOfertyPrc', 'VARCHAR2(30)', 'NAB_NR_OFERTY_PRC', 'String', p_nullable => 'T', p_desc => 'numer oferty pracy');
  ppadm.pp_add_col('PPADM.PPT_REK_NABORY', 'ObId', 'NUMBER(10)', 'NAB_OB_ID', 'Long', p_ix_name => 'PPI_NAB_OB_FK', p_fk_column_name => 'EGADM1.CSS_OBIEKTY_W_PRZEDSIEB.OB_ID', p_desc => 'komorka organizacyjna wnioskujaca');
  ppadm.pp_add_col('PPADM.PPT_REK_NABORY', 'RodzajNaboru', 'VARCHAR2(20)', 'NAB_RODZAJ_NABORU', 'String', p_desc => 'Rodzaj naboru wartosc slownikowa z REK_RODZAJ');
  ppadm.pp_add_col('PPADM.PPT_REK_NABORY', 'WymiarEtatu', 'VARCHAR2(20)', 'NAB_WYMIAR_ETATU', 'String', p_desc => 'Wymiar etatu ? wartosc slownikowa  z TYP ETATU');
  ppadm.pp_add_col('PPADM.PPT_REK_NABORY', 'LiczbaWakatow', 'NUMBER(10)', 'NAB_LICZBA_WAKATOW', 'Long', p_nullable => 'T', p_desc => 'liczba wakatow');
  ppadm.pp_add_col('PPADM.PPT_REK_NABORY', 'MnoznikMin', 'NUMBER(10,2)', 'NAB_MNOZNIK_MIN', 'Double', p_nullable => 'T', p_desc => 'proponowany przez BDG mnoznik kwoty bazowej ? wartosc minimum');
  ppadm.pp_add_col('PPADM.PPT_REK_NABORY', 'Uzasadnienie', 'VARCHAR2(2000)', 'NAB_UZASADNIENIE', 'String', p_desc => 'uzasadnienie wniosku ');
  ppadm.pp_add_col('PPADM.PPT_REK_NABORY', 'Uwagi', 'VARCHAR2(2000)', 'NAB_UWAGI', 'String', p_nullable => 'T', p_desc => 'uwagi do naboru/rekrutacji ');
  ppadm.pp_add_col('PPADM.PPT_REK_NABORY', 'NrOglBip', 'NUMBER(15)', 'NAB_NR_OGL_BIP', 'Long', p_nullable => 'T', p_desc => 'numer ogloszenia w BIP ');
  ppadm.pp_add_col('PPADM.PPT_REK_NABORY', 'DataPublikacji', 'DATE', 'NAB_DATA_PUBLIKACJI', 'Date', p_nullable => 'T', p_desc => 'data publikacji ogloszenia ');
  ppadm.pp_add_col('PPADM.PPT_REK_NABORY', 'DataZakonc', 'DATE', 'NAB_DATA_ZAKONC', 'Date', p_nullable => 'T', p_desc => 'data zakonczenia rekrutacji/naboru');
  ppadm.pp_add_col('PPADM.PPT_REK_NABORY', 'TerminSklOf', 'DATE', 'NAB_TERMIN_SKL_OF', 'Date', p_nullable => 'T', p_desc => 'termin skladania ofert ');
  ppadm.pp_add_col('PPADM.PPT_REK_NABORY', 'CzyInfNiepeln', 'VARCHAR2(1)', 'NAB_CZY_INF_NIEPELN', 'String', p_nullable => 'T', p_desc => 'czy zamieszczono informacje zachecajaca osoby niepelnosprawne do skladania ofert');
  ppadm.pp_add_col('PPADM.PPT_REK_NABORY', 'CzyInfWskNiepeln', 'VARCHAR2(1)', 'NAB_CZY_INF_WSK_NIEPELN', 'String', p_nullable => 'T', p_desc => 'czy wskazano informacje o wskazniku zatrudnienia osob niepelnosprawnych ponizej 6% ');
  ppadm.pp_add_col('PPADM.PPT_REK_NABORY', 'CzyInfCdz', 'VARCHAR2(1)', 'NAB_CZY_INF_CDZ', 'String', p_nullable => 'T', p_desc => 'czy wskazano za zgoda SZSC, ze o stanowisko moga ubiegac sie rowniez cudzoziemcy');
  ppadm.pp_add_col('PPADM.PPT_REK_NABORY', 'MnoznikMax', 'NUMBER(10,2)', 'NAB_MNOZNIK_MAX', 'Double', p_nullable => 'T', p_desc => 'proponowany przez BDG mnoznik kwoty bazowej ? wartosc maksimum');
  ppadm.pp_add_col('PPADM.PPT_REK_NABORY', 'Wynik', 'VARCHAR2(20)', 'NAB_WYNIK', 'String', p_nullable => 'T', p_desc => 'Wynik rekrutacji ');
  ppadm.pp_add_col('PPADM.PPT_REK_NABORY', 'WakatPotw', 'VARCHAR2(1)', 'NAB_WAKAT_POTW', 'String', p_nullable => 'T', p_desc => 'Czy potwierdzony wakat przez (checkbox zaznaczany przez komorke kadrowa ');
  ppadm.pp_add_col('PPADM.PPT_REK_NABORY', 'DataWolneOd', 'DATE', 'NAB_DATA_WOLNE_OD', 'Date', p_nullable => 'T', p_desc => 'Stanowisko pracy wolne od dnia');
  ppadm.pp_add_col('PPADM.PPT_REK_NABORY', 'EtatZwyk', 'VARCHAR2(1)', 'NAB_ETAT_ZWYK', 'String', p_nullable => 'T', p_desc => 'Podzial etatu ? etat zwykly ');
  ppadm.pp_add_col('PPADM.PPT_REK_NABORY', 'EtatZastepstwo', 'VARCHAR2(1)', 'NAB_ETAT_ZASTEPSTWO', 'String', p_nullable => 'T', p_desc => 'Podzial etatu ? zastepstwo ');
  ppadm.pp_add_col('PPADM.PPT_REK_NABORY', 'EtatRezerwa', 'NUMBER(5,2)', 'NAB_ETAT_REZERWA', 'Double', p_nullable => 'T', p_desc => 'Podzial etatu ? rezerwa');
  ppadm.pp_add_col('PPADM.PPT_REK_NABORY', 'EtatProjekt', 'NUMBER(5,2)', 'NAB_ETAT_PROJEKT', 'Double', p_nullable => 'T', p_desc => 'Podzial etatu ? projekt ');
  ppadm.pp_add_col('PPADM.PPT_REK_NABORY', 'OgZakresObow', 'VARCHAR2(2000)', 'NAB_OG_ZAKRES_OBOW', 'String', p_nullable => 'T', p_desc => 'Zakres obowiazkow ? pole opisowe 2000 znakow');
  ppadm.pp_add_col('PPADM.PPT_REK_NABORY', 'OgWymaganiaNiezb', 'VARCHAR2(2000)', 'NAB_OG_WYMAGANIA_NIEZB', 'String', p_nullable => 'T', p_desc => 'Wymagania niezbedne ? pole opisowe 2000 znakow');
  ppadm.pp_add_col('PPADM.PPT_REK_NABORY', 'OgWymaganiaDodat', 'VARCHAR2(2000)', 'NAB_OG_WYMAGANIA_DODAT', 'String', p_nullable => 'T', p_desc => 'Wymagania dodatkowe ? pole opisowe 2000 znakow');
  ppadm.pp_add_col('PPADM.PPT_REK_NABORY', 'OgWymaganeWyksz', 'VARCHAR2(500)', 'NAB_OG_WYMAGANE_WYKSZ', 'String', p_nullable => 'T', p_desc => 'Wymagane wyksztalcenie ? pole opisowe 500 znakow');
  ppadm.pp_add_col('PPADM.PPT_REK_NABORY', 'OgTerminZglEmail', 'DATE', 'NAB_OG_TERMIN_ZGL_EMAIL', 'Date', p_nullable => 'T', p_desc => 'Termin skladania zgloszen na adres e-mail ? wybor daty z kalendarza');
  ppadm.pp_add_col('PPADM.PPT_REK_NABORY', 'OgWymDok', 'VARCHAR2(2000)', 'NAB_OG_WYM_DOK', 'String', p_nullable => 'T', p_desc => 'Wymagane dokumenty ? pole opisowe 2000 znakow');
  ppadm.pp_add_col('PPADM.PPT_REK_NABORY', 'OgTerminRozm', 'DATE', 'NAB_OG_TERMIN_ROZM', 'Date', p_nullable => 'T', p_desc => 'Termin rozmowy kwalifikacyjnej ? wybor daty z kalendarza');
  ppadm.pp_add_col('PPADM.PPT_REK_NABORY', 'OgKontakt', 'VARCHAR2(500)', 'NAB_OG_KONTAKT', 'String', p_nullable => 'T', p_desc => 'Kontakt ? pole opisowe 500 znakow');
  ppadm.pp_add_col('PPADM.PPT_REK_NABORY', 'RodzajPropUmowy', 'VARCHAR2(50)', 'NAB_RODZAJ_PROP_UMOWY', 'String', p_nullable => 'T', p_desc => 'rodzaj proponowanej umowy - slownik TYP_UMOWY');
  ppadm.pp_add_col('PPADM.PPT_REK_NABORY', 'ZrodloFinEtat', 'VARCHAR2(500)', 'NAB_ZRODLO_FIN_ETAT', 'String', p_nullable => 'T', p_desc => 'zrodlo finansowania etatu ');
  ppadm.pp_add_col('PPADM.PPT_REK_NABORY', 'Etap', 'VARCHAR2(100)', 'NAB_ETAP', 'String', p_nullable => 'T', p_desc => 'etap');
  ppadm.pp_add_col('PPADM.PPT_REK_NABORY', 'TerminRealizacji', 'DATE', 'NAB_TERMIN_REALIZACJI', 'Date', p_nullable => 'T', p_desc => 'termin realizacji');
  ppadm.pp_add_col('PPADM.PPT_REK_NABORY', 'MnoznikMinAkc', 'NUMBER(12,2)', 'NAB_MNOZNIK_MIN_AKC', 'Double', p_nullable => 'T', p_desc => 'zaakceptowany mnoznik kwoty bazowej - wartosc minimum');
  ppadm.pp_add_col('PPADM.PPT_REK_NABORY', 'MnoznikMaxAkc', 'NUMBER(12,2)', 'NAB_MNOZNIK_MAX_AKC', 'Double', p_nullable => 'T', p_desc => 'zaakceptowany mnoznik kwoty bazowej - wartosc maksimum');
  ppadm.pp_add_col('PPADM.PPT_REK_NABORY', 'EtatZFundWynagr', 'NUMBER(5,2)', 'NAB_ETAT_Z_FUND_WYNAGR', 'Double', p_nullable => 'T', p_desc => 'Procent wynagrodzenia z funduszu wynagrodzen');
  ppadm.pp_add_col('PPADM.PPT_REK_NABORY', 'EtatRezerwaTyp', 'VARCHAR2(100)', 'NAB_ETAT_REZERWA_TYP', 'String', p_nullable => 'T', p_desc => 'Z jakiej rezerwy celowej finansowanie');
  ppadm.pp_add_col('PPADM.PPT_REK_NABORY', 'ProjObId', 'NUMBER(10)', 'NAB_PROJ_OB_ID', 'Long', p_nullable => 'T', p_desc => 'Z jakiego projektu finansowanie');
  ppadm.pp_add_col('PPADM.PPT_REK_NABORY', 'StjoId', 'NUMBER(10)', 'NAB_STJO_ID', 'Long', p_nullable => 'T', p_ix_name => 'PPI_NAB_STJO_FK', p_fk_column_name => 'EGADM1.ZPT_ST_W_JO.STJO_ID', p_desc => 'Stanowisko w jednostce ? klucz obcy do tabeli ZPT_ST_W_JO ');
  ppadm.pp_add_col('PPADM.PPT_REK_NABORY', 'WydzialId', 'NUMBER(10)', 'NAB_WYDZIAL_ID', 'Long', p_nullable => 'T', p_desc => 'Identyfikator wydzialu');
  ppadm.pp_add_col('PPADM.PPT_REK_NABORY', 'NumerNr', 'NUMBER(10)', 'NAB_NUMER_NR', 'Long', p_nullable => 'T', p_desc => 'Pole pomocnicze potrzebne do generowania kolejnych numerow rekrutacji/naboru');
  ppadm.pp_add_col('PPADM.PPT_REK_NABORY', 'OgTelefon', 'VARCHAR2(30)', 'NAB_OG_TELEFON', 'String', p_nullable => 'T', p_desc => 'Numer telefonu do osoby koordynującej w urzędzie proces organizacji pierwszego zatrudnienia  absolwentów KSAP');
  ppadm.pp_add_col('PPADM.PPT_REK_NABORY', 'OgEmail', 'VARCHAR2(30)', 'NAB_OG_EMAIL', 'String', p_nullable => 'T', p_desc => 'Adres email do osoby koordynującej w urzędzie proces organizacji pierwszego zatrudnienia  absolwentów KSAP');
END;
/
