=============================================
==  Egeria 6.0.3.xxx.yyy
==  Opis zmian
=============================================

Poprawka | Aplikacja | ZGL       | Opis
xxx.yyy  | <symbol>  | <numer>   | 